EESchema Schematic File Version 4
EELAYER 30 0
EELAYER END
$Descr A3 16535 11693
encoding utf-8
Sheet 1 1
Title "Stellar Wind"
Date "2021-04-18"
Rev "1"
Comp ""
Comment1 "(c)Copyright 2021 Jonathan Moseley"
Comment2 "Licensed under CERN-OHL-P v2 or later"
Comment3 ""
Comment4 ""
$EndDescr
$Comp
L ESP32-D0WD:ESP32-D0WD U4
U 1 1 5FDEF081
P 10900 4050
F 0 "U4" H 10900 6017 50  0000 C CNN
F 1 "ESP32-D0WD" H 10900 5926 50  0000 C CNN
F 2 "ESP32-D0WD:QFN35P500X500X90-49N" H 10900 4050 50  0001 L BNN
F 3 "1.7" H 10900 4050 50  0001 L BNN
F 4 "QFN-48" H 10900 4050 50  0001 L BNN "Field4"
F 5 "IPC 7351B" H 10900 4050 50  0001 L BNN "Field5"
F 6 "Expressif Systems" H 10900 4050 50  0001 L BNN "Field6"
	1    10900 4050
	1    0    0    -1  
$EndComp
Wire Wire Line
	11900 2650 12700 2650
Wire Wire Line
	12700 2650 12700 2300
$Comp
L power:GND #PWR025
U 1 1 5FE10C6C
P 12700 1950
F 0 "#PWR025" H 12700 1700 50  0001 C CNN
F 1 "GND" H 12705 1777 50  0000 C CNN
F 2 "" H 12700 1950 50  0001 C CNN
F 3 "" H 12700 1950 50  0001 C CNN
	1    12700 1950
	-1   0    0    1   
$EndComp
Text Label 11900 4950 0    50   ~ 0
GPIO19
Text Label 11900 5250 0    50   ~ 0
GPIO23
Text Label 11900 4850 0    50   ~ 0
GPIO18
Text Label 11900 4550 0    50   ~ 0
GPIO5
$Comp
L power:VDD #PWR030
U 1 1 5FE1D561
P 13250 2300
F 0 "#PWR030" H 13250 2150 50  0001 C CNN
F 1 "VDD" H 13265 2473 50  0000 C CNN
F 2 "" H 13250 2300 50  0001 C CNN
F 3 "" H 13250 2300 50  0001 C CNN
	1    13250 2300
	1    0    0    -1  
$EndComp
Wire Wire Line
	13250 2300 12700 2300
Connection ~ 12700 2300
Wire Wire Line
	12700 2300 12700 2250
Wire Wire Line
	11900 2750 12700 2750
$Comp
L power:VDD #PWR029
U 1 1 5FE1ECD7
P 13100 2750
F 0 "#PWR029" H 13100 2600 50  0001 C CNN
F 1 "VDD" H 13115 2923 50  0000 C CNN
F 2 "" H 13100 2750 50  0001 C CNN
F 3 "" H 13100 2750 50  0001 C CNN
	1    13100 2750
	1    0    0    -1  
$EndComp
$Comp
L Device:C C16
U 1 1 5FE1FDDC
P 12700 2900
F 0 "C16" H 12815 2946 50  0000 L CNN
F 1 "0.1uF" H 12815 2855 50  0000 L CNN
F 2 "Capacitor_Tantalum_SMD:CP_EIA-3216-12_Kemet-S" H 12738 2750 50  0001 C CNN
F 3 "~" H 12700 2900 50  0001 C CNN
	1    12700 2900
	1    0    0    -1  
$EndComp
$Comp
L Device:C C15
U 1 1 5FE20DB0
P 12700 2100
F 0 "C15" H 12815 2146 50  0000 L CNN
F 1 "0.1uF" H 12815 2055 50  0000 L CNN
F 2 "Capacitor_Tantalum_SMD:CP_EIA-3216-12_Kemet-S" H 12738 1950 50  0001 C CNN
F 3 "~" H 12700 2100 50  0001 C CNN
	1    12700 2100
	1    0    0    -1  
$EndComp
Connection ~ 12700 2750
Wire Wire Line
	12700 2750 13100 2750
$Comp
L power:GND #PWR026
U 1 1 5FE2972A
P 12700 3100
F 0 "#PWR026" H 12700 2850 50  0001 C CNN
F 1 "GND" H 12705 2927 50  0000 C CNN
F 2 "" H 12700 3100 50  0001 C CNN
F 3 "" H 12700 3100 50  0001 C CNN
	1    12700 3100
	1    0    0    -1  
$EndComp
Wire Wire Line
	12700 3100 12700 3050
$Comp
L Device:C C14
U 1 1 5FE2AED6
P 12050 3200
F 0 "C14" H 11935 3154 50  0000 R CNN
F 1 "0.1uF" H 11935 3245 50  0000 R CNN
F 2 "Capacitor_Tantalum_SMD:CP_EIA-3216-12_Kemet-S" H 12088 3050 50  0001 C CNN
F 3 "~" H 12050 3200 50  0001 C CNN
	1    12050 3200
	-1   0    0    1   
$EndComp
$Comp
L power:GND #PWR023
U 1 1 5FE2DF8E
P 12050 3350
F 0 "#PWR023" H 12050 3100 50  0001 C CNN
F 1 "GND" H 12055 3177 50  0000 C CNN
F 2 "" H 12050 3350 50  0001 C CNN
F 3 "" H 12050 3350 50  0001 C CNN
	1    12050 3350
	1    0    0    -1  
$EndComp
$Comp
L power:VDD #PWR024
U 1 1 5FE2E8D0
P 12150 3000
F 0 "#PWR024" H 12150 2850 50  0001 C CNN
F 1 "VDD" V 12165 3128 50  0000 L CNN
F 2 "" H 12150 3000 50  0001 C CNN
F 3 "" H 12150 3000 50  0001 C CNN
	1    12150 3000
	0    1    1    0   
$EndComp
$Comp
L power:VDD #PWR022
U 1 1 5FE34709
P 12000 2050
F 0 "#PWR022" H 12000 1900 50  0001 C CNN
F 1 "VDD" H 12015 2223 50  0000 C CNN
F 2 "" H 12000 2050 50  0001 C CNN
F 3 "" H 12000 2050 50  0001 C CNN
	1    12000 2050
	1    0    0    -1  
$EndComp
Wire Wire Line
	11900 2350 12000 2350
$Comp
L Device:C C13
U 1 1 5FE3632B
P 11850 2150
F 0 "C13" V 11598 2150 50  0000 C CNN
F 1 "C" V 11689 2150 50  0000 C CNN
F 2 "Capacitor_Tantalum_SMD:CP_EIA-3216-12_Kemet-S" H 11888 2000 50  0001 C CNN
F 3 "~" H 11850 2150 50  0001 C CNN
	1    11850 2150
	0    1    1    0   
$EndComp
Connection ~ 12000 2150
Wire Wire Line
	12000 2150 12000 2050
$Comp
L power:GND #PWR021
U 1 1 5FE37004
P 11700 2150
F 0 "#PWR021" H 11700 1900 50  0001 C CNN
F 1 "GND" V 11705 2022 50  0000 R CNN
F 2 "" H 11700 2150 50  0001 C CNN
F 3 "" H 11700 2150 50  0001 C CNN
	1    11700 2150
	0    1    1    0   
$EndComp
Wire Wire Line
	11900 2550 12050 2550
Wire Wire Line
	12050 2550 12050 3000
Wire Wire Line
	12150 3000 12050 3000
Connection ~ 12050 3000
Wire Wire Line
	12050 3000 12050 3050
$Comp
L pspice:INDUCTOR L2
U 1 1 5FE53B23
P 13850 2450
F 0 "L2" H 13850 2665 50  0000 C CNN
F 1 "INDUCTOR" H 13850 2574 50  0000 C CNN
F 2 "Inductor_SMD:L_1206_3216Metric" H 13850 2450 50  0001 C CNN
F 3 "~" H 13850 2450 50  0001 C CNN
	1    13850 2450
	1    0    0    -1  
$EndComp
$Comp
L power:VDD #PWR034
U 1 1 5FE56290
P 15500 2450
F 0 "#PWR034" H 15500 2300 50  0001 C CNN
F 1 "VDD" H 15515 2623 50  0000 C CNN
F 2 "" H 15500 2450 50  0001 C CNN
F 3 "" H 15500 2450 50  0001 C CNN
	1    15500 2450
	1    0    0    -1  
$EndComp
$Comp
L Device:C C17
U 1 1 5FE57F4C
P 14300 2600
F 0 "C17" H 14415 2646 50  0000 L CNN
F 1 "0.1uF" H 14415 2555 50  0000 L CNN
F 2 "Capacitor_Tantalum_SMD:CP_EIA-3216-12_Kemet-S" H 14338 2450 50  0001 C CNN
F 3 "~" H 14300 2600 50  0001 C CNN
	1    14300 2600
	1    0    0    -1  
$EndComp
$Comp
L Device:C C18
U 1 1 5FE583BC
P 14750 2600
F 0 "C18" H 14865 2646 50  0000 L CNN
F 1 "1uF" H 14865 2555 50  0000 L CNN
F 2 "Capacitor_Tantalum_SMD:CP_EIA-3216-12_Kemet-S" H 14788 2450 50  0001 C CNN
F 3 "~" H 14750 2600 50  0001 C CNN
	1    14750 2600
	1    0    0    -1  
$EndComp
$Comp
L Device:C C19
U 1 1 5FE58C4B
P 15200 2600
F 0 "C19" H 15315 2646 50  0000 L CNN
F 1 "10uF" H 15315 2555 50  0000 L CNN
F 2 "Capacitor_Tantalum_SMD:CP_EIA-3216-12_Kemet-S" H 15238 2450 50  0001 C CNN
F 3 "~" H 15200 2600 50  0001 C CNN
	1    15200 2600
	1    0    0    -1  
$EndComp
Connection ~ 15200 2450
$Comp
L power:GND #PWR031
U 1 1 5FE5ABDB
P 14300 2750
F 0 "#PWR031" H 14300 2500 50  0001 C CNN
F 1 "GND" H 14305 2577 50  0000 C CNN
F 2 "" H 14300 2750 50  0001 C CNN
F 3 "" H 14300 2750 50  0001 C CNN
	1    14300 2750
	1    0    0    -1  
$EndComp
$Comp
L power:GND #PWR032
U 1 1 5FE5B0E2
P 14750 2750
F 0 "#PWR032" H 14750 2500 50  0001 C CNN
F 1 "GND" H 14755 2577 50  0000 C CNN
F 2 "" H 14750 2750 50  0001 C CNN
F 3 "" H 14750 2750 50  0001 C CNN
	1    14750 2750
	1    0    0    -1  
$EndComp
$Comp
L power:GND #PWR033
U 1 1 5FE5B965
P 15200 2750
F 0 "#PWR033" H 15200 2500 50  0001 C CNN
F 1 "GND" H 15205 2577 50  0000 C CNN
F 2 "" H 15200 2750 50  0001 C CNN
F 3 "" H 15200 2750 50  0001 C CNN
	1    15200 2750
	1    0    0    -1  
$EndComp
Connection ~ 14750 2450
Wire Wire Line
	14750 2450 15200 2450
Connection ~ 14300 2450
Wire Wire Line
	14300 2450 14750 2450
Wire Wire Line
	14100 2450 14300 2450
$Comp
L power:GND #PWR028
U 1 1 5FE65075
P 12750 5750
F 0 "#PWR028" H 12750 5500 50  0001 C CNN
F 1 "GND" H 12755 5577 50  0000 C CNN
F 2 "" H 12750 5750 50  0001 C CNN
F 3 "" H 12750 5750 50  0001 C CNN
	1    12750 5750
	0    -1   -1   0   
$EndComp
Wire Wire Line
	2700 5450 2450 5450
Wire Wire Line
	3900 5650 4200 5650
Wire Wire Line
	3900 5450 4200 5450
$Comp
L power:VDD #PWR04
U 1 1 5FE7896B
P 4200 5450
F 0 "#PWR04" H 4200 5300 50  0001 C CNN
F 1 "VDD" V 4215 5578 50  0000 L CNN
F 2 "" H 4200 5450 50  0001 C CNN
F 3 "" H 4200 5450 50  0001 C CNN
	1    4200 5450
	0    1    1    0   
$EndComp
$Comp
L SparkFun-IC-Memory:SPI_FLASH-X25XXSMD U1
U 1 1 5FE747E3
P 3300 5600
F 0 "U1" H 3300 6110 45  0000 C CNN
F 1 "SPI_FLASH-X25XXSMD" H 3300 6026 45  0000 C CNN
F 2 "Silicon-Standard:SO08" H 3300 5950 20  0001 C CNN
F 3 "" H 3300 5600 50  0001 C CNN
F 4 "XXX-00000" H 3300 5931 60  0000 C CNN "Field4"
	1    3300 5600
	1    0    0    -1  
$EndComp
Wire Wire Line
	3900 5550 4200 5550
Wire Wire Line
	3900 5750 4200 5750
Wire Wire Line
	2700 5550 2450 5550
Wire Wire Line
	2700 5650 2450 5650
$Comp
L power:GND #PWR01
U 1 1 5FE7B596
P 2450 5750
F 0 "#PWR01" H 2450 5500 50  0001 C CNN
F 1 "GND" V 2455 5622 50  0000 R CNN
F 2 "" H 2450 5750 50  0001 C CNN
F 3 "" H 2450 5750 50  0001 C CNN
	1    2450 5750
	0    1    1    0   
$EndComp
Wire Wire Line
	2450 5750 2700 5750
$Comp
L Device:R R3
U 1 1 5FE7CA6E
P 7050 2600
F 0 "R3" V 6843 2600 50  0000 C CNN
F 1 "0R(5%)" V 6934 2600 50  0000 C CNN
F 2 "Resistor_SMD:R_0805_2012Metric" V 6980 2600 50  0001 C CNN
F 3 "~" H 7050 2600 50  0001 C CNN
	1    7050 2600
	0    1    1    0   
$EndComp
Wire Wire Line
	7200 2600 7650 2600
$Comp
L Stream_parts:40MHz U3
U 1 1 5FE8D9FA
P 8600 3300
F 0 "U3" H 8372 2879 50  0000 R CNN
F 1 "40MHz" H 8372 2970 50  0000 R CNN
F 2 "digikey-footprints:Oscillator_XLH736022.579200I" H 8650 3600 50  0001 C CNN
F 3 "" H 8650 3600 50  0001 C CNN
	1    8600 3300
	1    0    0    -1  
$EndComp
Wire Wire Line
	9900 3250 9400 3250
$Comp
L Device:R R7
U 1 1 5FE97888
P 9250 3250
F 0 "R7" V 9043 3250 50  0000 C CNN
F 1 "0R" V 9134 3250 50  0000 C CNN
F 2 "Resistor_SMD:R_0805_2012Metric" V 9180 3250 50  0001 C CNN
F 3 "~" H 9250 3250 50  0001 C CNN
	1    9250 3250
	0    1    1    0   
$EndComp
$Comp
L power:GND #PWR016
U 1 1 5FEA96F3
P 7950 3250
F 0 "#PWR016" H 7950 3000 50  0001 C CNN
F 1 "GND" V 7955 3122 50  0000 R CNN
F 2 "" H 7950 3250 50  0001 C CNN
F 3 "" H 7950 3250 50  0001 C CNN
	1    7950 3250
	0    1    1    0   
$EndComp
$Comp
L Device:C C9
U 1 1 5FEAA134
P 8250 3250
F 0 "C9" V 7998 3250 50  0000 C CNN
F 1 "C" V 8089 3250 50  0000 C CNN
F 2 "Capacitor_Tantalum_SMD:CP_EIA-3216-12_Kemet-S" H 8288 3100 50  0001 C CNN
F 3 "~" H 8250 3250 50  0001 C CNN
	1    8250 3250
	0    1    1    0   
$EndComp
$Comp
L power:GND #PWR018
U 1 1 5FEB6714
P 7950 3650
F 0 "#PWR018" H 7950 3400 50  0001 C CNN
F 1 "GND" V 7950 3450 50  0000 C CNN
F 2 "" H 7950 3650 50  0001 C CNN
F 3 "" H 7950 3650 50  0001 C CNN
	1    7950 3650
	0    1    1    0   
$EndComp
$Comp
L power:GND #PWR017
U 1 1 5FEB8F8D
P 7950 3500
F 0 "#PWR017" H 7950 3250 50  0001 C CNN
F 1 "GND" V 7950 3300 50  0000 C CNN
F 2 "" H 7950 3500 50  0001 C CNN
F 3 "" H 7950 3500 50  0001 C CNN
	1    7950 3500
	0    1    1    0   
$EndComp
Wire Wire Line
	9900 3150 9450 3150
$Comp
L power:GND #PWR013
U 1 1 5FEBABA0
P 7650 3750
F 0 "#PWR013" H 7650 3500 50  0001 C CNN
F 1 "GND" H 7900 3700 50  0000 R CNN
F 2 "" H 7650 3750 50  0001 C CNN
F 3 "" H 7650 3750 50  0001 C CNN
	1    7650 3750
	-1   0    0    1   
$EndComp
$Comp
L Device:C C6
U 1 1 5FEBB4F6
P 7650 3950
F 0 "C6" V 7398 3950 50  0000 C CNN
F 1 "C" V 7489 3950 50  0000 C CNN
F 2 "Capacitor_Tantalum_SMD:CP_EIA-3216-12_Kemet-S" H 7688 3800 50  0001 C CNN
F 3 "~" H 7650 3950 50  0001 C CNN
	1    7650 3950
	-1   0    0    1   
$EndComp
Wire Wire Line
	9450 3150 9450 4100
$Comp
L power:GND #PWR014
U 1 1 5FF02808
P 7800 4250
F 0 "#PWR014" H 7800 4000 50  0001 C CNN
F 1 "GND" V 7805 4122 50  0000 R CNN
F 2 "" H 7800 4250 50  0001 C CNN
F 3 "" H 7800 4250 50  0001 C CNN
	1    7800 4250
	0    1    1    0   
$EndComp
$Comp
L power:GND #PWR015
U 1 1 5FF04F5E
P 7800 4750
F 0 "#PWR015" H 7800 4500 50  0001 C CNN
F 1 "GND" V 7805 4622 50  0000 R CNN
F 2 "" H 7800 4750 50  0001 C CNN
F 3 "" H 7800 4750 50  0001 C CNN
	1    7800 4750
	0    1    1    0   
$EndComp
$Comp
L Device:R R6
U 1 1 5FF073D9
P 8900 4500
F 0 "R6" H 8970 4546 50  0000 L CNN
F 1 "70Ohm" H 8970 4455 50  0000 L CNN
F 2 "Resistor_SMD:R_0805_2012Metric" V 8830 4500 50  0001 C CNN
F 3 "~" H 8900 4500 50  0001 C CNN
	1    8900 4500
	1    0    0    -1  
$EndComp
Wire Wire Line
	8900 4350 8900 4250
Wire Wire Line
	8900 4650 8900 4750
$Comp
L Device:Crystal Y1
U 1 1 5FF0ADA7
P 8300 4500
F 0 "Y1" V 8254 4631 50  0000 L CNN
F 1 "32.768kHz" V 8345 4631 50  0000 L CNN
F 2 "digikey-footprints:Oscillator_XLH736022.579200I" H 8300 4500 50  0001 C CNN
F 3 "~" H 8300 4500 50  0001 C CNN
	1    8300 4500
	0    1    1    0   
$EndComp
Wire Wire Line
	8300 4350 8300 4250
Wire Wire Line
	8300 4650 8300 4750
$Comp
L Device:C C7
U 1 1 5FF0E629
P 8000 4250
F 0 "C7" V 7748 4250 50  0000 C CNN
F 1 "C" V 7839 4250 50  0000 C CNN
F 2 "Capacitor_Tantalum_SMD:CP_EIA-3216-12_Kemet-S" H 8038 4100 50  0001 C CNN
F 3 "~" H 8000 4250 50  0001 C CNN
	1    8000 4250
	0    1    1    0   
$EndComp
Wire Wire Line
	7850 4250 7800 4250
Wire Wire Line
	8150 4250 8300 4250
$Comp
L Device:C C8
U 1 1 5FF1CAD6
P 8050 4750
F 0 "C8" V 7798 4750 50  0000 C CNN
F 1 "C" V 7889 4750 50  0000 C CNN
F 2 "Capacitor_Tantalum_SMD:CP_EIA-3216-12_Kemet-S" H 8088 4600 50  0001 C CNN
F 3 "~" H 8050 4750 50  0001 C CNN
	1    8050 4750
	0    1    1    0   
$EndComp
Wire Wire Line
	8200 4750 8300 4750
Wire Wire Line
	7900 4750 7800 4750
NoConn ~ 9900 3350
NoConn ~ 9900 3450
NoConn ~ 9900 3550
NoConn ~ 9900 3650
$Comp
L pspice:INDUCTOR L1
U 1 1 5FF5B194
P 7000 4150
F 0 "L1" H 7000 4365 50  0000 C CNN
F 1 "INDUCTOR" H 7000 4274 50  0000 C CNN
F 2 "Inductor_SMD:L_1206_3216Metric" H 7000 4150 50  0001 C CNN
F 3 "~" H 7000 4150 50  0001 C CNN
	1    7000 4150
	1    0    0    -1  
$EndComp
Wire Wire Line
	7250 4150 7300 4150
$Comp
L Device:C C5
U 1 1 5FF5E1B6
P 7300 4300
F 0 "C5" H 7415 4346 50  0000 L CNN
F 1 "C" H 7415 4255 50  0000 L CNN
F 2 "Capacitor_Tantalum_SMD:CP_EIA-3216-12_Kemet-S" H 7338 4150 50  0001 C CNN
F 3 "~" H 7300 4300 50  0001 C CNN
	1    7300 4300
	1    0    0    -1  
$EndComp
Connection ~ 7300 4150
Wire Wire Line
	7300 4150 9900 4150
$Comp
L power:GND #PWR011
U 1 1 5FF5E9A5
P 7300 4450
F 0 "#PWR011" H 7300 4200 50  0001 C CNN
F 1 "GND" H 7305 4277 50  0000 C CNN
F 2 "" H 7300 4450 50  0001 C CNN
F 3 "" H 7300 4450 50  0001 C CNN
	1    7300 4450
	1    0    0    -1  
$EndComp
Wire Wire Line
	6750 4150 6600 4150
$Comp
L power:GND #PWR010
U 1 1 5FF60EA5
P 6600 4450
F 0 "#PWR010" H 6600 4200 50  0001 C CNN
F 1 "GND" H 6605 4277 50  0000 C CNN
F 2 "" H 6600 4450 50  0001 C CNN
F 3 "" H 6600 4450 50  0001 C CNN
	1    6600 4450
	1    0    0    -1  
$EndComp
$Comp
L Device:C C4
U 1 1 5FF61791
P 6600 4300
F 0 "C4" H 6715 4346 50  0000 L CNN
F 1 "C" H 6715 4255 50  0000 L CNN
F 2 "Capacitor_Tantalum_SMD:CP_EIA-3216-12_Kemet-S" H 6638 4150 50  0001 C CNN
F 3 "~" H 6600 4300 50  0001 C CNN
	1    6600 4300
	1    0    0    -1  
$EndComp
Wire Wire Line
	6600 4150 6250 4150
Connection ~ 6600 4150
$Comp
L power:GND #PWR09
U 1 1 5FF6F9F6
P 6050 3800
F 0 "#PWR09" H 6050 3550 50  0001 C CNN
F 1 "GND" H 6055 3627 50  0000 C CNN
F 2 "" H 6050 3800 50  0001 C CNN
F 3 "" H 6050 3800 50  0001 C CNN
	1    6050 3800
	-1   0    0    1   
$EndComp
Wire Wire Line
	6050 3800 6050 3950
$Comp
L Device:C C10
U 1 1 5FF8B741
P 8900 2850
F 0 "C10" H 9015 2896 50  0000 L CNN
F 1 "10nF/6.3V(10%)" H 8150 2850 50  0000 L CNN
F 2 "Capacitor_Tantalum_SMD:CP_EIA-3216-12_Kemet-S" H 8938 2700 50  0001 C CNN
F 3 "~" H 8900 2850 50  0001 C CNN
	1    8900 2850
	1    0    0    -1  
$EndComp
Wire Wire Line
	9900 3050 9350 3050
Wire Wire Line
	9350 3050 9350 3000
Wire Wire Line
	9350 3000 9250 3000
$Comp
L power:GND #PWR019
U 1 1 5FF8E9CD
P 8900 2700
F 0 "#PWR019" H 8900 2450 50  0001 C CNN
F 1 "GND" H 8905 2527 50  0000 C CNN
F 2 "" H 8900 2700 50  0001 C CNN
F 3 "" H 8900 2700 50  0001 C CNN
	1    8900 2700
	-1   0    0    1   
$EndComp
$Comp
L Device:R R8
U 1 1 5FF8F47F
P 9500 2450
F 0 "R8" V 9293 2450 50  0000 C CNN
F 1 "20K(5%)" V 9400 2450 50  0000 C CNN
F 2 "Resistor_SMD:R_0805_2012Metric" V 9430 2450 50  0001 C CNN
F 3 "~" H 9500 2450 50  0001 C CNN
	1    9500 2450
	0    1    1    0   
$EndComp
Wire Wire Line
	9900 2950 9750 2950
Wire Wire Line
	9750 2450 9650 2450
Wire Wire Line
	9350 2450 9250 2450
Connection ~ 9250 3000
Wire Wire Line
	9250 3000 8900 3000
$Comp
L Device:C C12
U 1 1 5FF949DD
P 9500 2700
F 0 "C12" V 9650 2700 50  0000 C CNN
F 1 "3.3nF/6.3V(10%)" V 9339 2700 50  0000 C CNN
F 2 "Capacitor_Tantalum_SMD:CP_EIA-3216-12_Kemet-S" H 9538 2550 50  0001 C CNN
F 3 "~" H 9500 2700 50  0001 C CNN
	1    9500 2700
	0    1    1    0   
$EndComp
Wire Wire Line
	9250 2450 9250 2700
Wire Wire Line
	9750 2450 9750 2700
Wire Wire Line
	9650 2700 9750 2700
Connection ~ 9750 2700
Wire Wire Line
	9750 2700 9750 2950
Wire Wire Line
	9350 2700 9250 2700
Connection ~ 9250 2700
Wire Wire Line
	9250 2700 9250 3000
Text Label 11900 4250 0    50   ~ 0
GPIO0
Text Label 12750 4350 0    50   ~ 0
GPIO2
Text Label 11900 4450 0    50   ~ 0
GPIO4
Text Label 11900 4650 0    50   ~ 0
GPIO16
Text Label 11900 4750 0    50   ~ 0
GPIO17
Text Label 11900 5050 0    50   ~ 0
GPIO21
Text Label 11900 5150 0    50   ~ 0
GPIO22
Text Label 11900 5350 0    50   ~ 0
GPIO25
Text Label 11900 5450 0    50   ~ 0
GPIO26
Text Label 11900 5550 0    50   ~ 0
GPIO27
Text Label 9900 3750 2    50   ~ 0
CHIP_PU
Text Label 9900 3850 2    50   ~ 0
GPIO34
Text Label 9900 3950 2    50   ~ 0
GPIO35
Text Label 9900 4450 2    50   ~ 0
GPIO12
Text Label 9900 4550 2    50   ~ 0
GPIO14
Text Label 9900 4650 2    50   ~ 0
GPIO13
Text Label 9900 4750 2    50   ~ 0
GPIO15
Wire Notes Line
	1900 5000 4900 5000
Wire Notes Line
	4900 5000 4900 6000
Wire Notes Line
	4900 6000 1900 6000
Wire Notes Line
	1900 6000 1900 5000
Wire Wire Line
	3500 8300 3700 8300
Wire Wire Line
	3500 8400 3700 8400
Wire Wire Line
	3700 8400 3700 8300
Connection ~ 3700 8300
Wire Wire Line
	3500 8200 3700 8200
Wire Wire Line
	3500 8100 3700 8100
Wire Wire Line
	3700 8100 3700 8200
Connection ~ 3700 8200
Wire Wire Line
	3700 8200 6000 8200
Wire Wire Line
	3700 8300 6100 8300
$Comp
L power:+5V #PWR03
U 1 1 6060D9AD
P 3700 7000
F 0 "#PWR03" H 3700 6850 50  0001 C CNN
F 1 "+5V" H 3715 7173 50  0000 C CNN
F 2 "" H 3700 7000 50  0001 C CNN
F 3 "" H 3700 7000 50  0001 C CNN
	1    3700 7000
	1    0    0    -1  
$EndComp
Wire Wire Line
	9900 5450 8000 5450
Wire Wire Line
	7550 8050 8250 8050
Wire Wire Line
	8250 8050 8250 5550
Wire Wire Line
	3700 7400 3700 7250
$Comp
L Device:C C1
U 1 1 60713153
P 4250 6850
F 0 "C1" H 4365 6896 50  0000 L CNN
F 1 "4.7uF" H 4365 6805 50  0000 L CNN
F 2 "Capacitor_Tantalum_SMD:CP_EIA-3216-12_Kemet-S" H 4288 6700 50  0001 C CNN
F 3 "~" H 4250 6850 50  0001 C CNN
	1    4250 6850
	1    0    0    -1  
$EndComp
$Comp
L Device:C C3
U 1 1 6071709B
P 5150 6850
F 0 "C3" H 5265 6896 50  0000 L CNN
F 1 "100nF" H 5265 6805 50  0000 L CNN
F 2 "Capacitor_Tantalum_SMD:CP_EIA-3216-12_Kemet-S" H 5188 6700 50  0001 C CNN
F 3 "~" H 5150 6850 50  0001 C CNN
	1    5150 6850
	1    0    0    -1  
$EndComp
Wire Wire Line
	5150 6500 5150 6700
$Comp
L power:GND #PWR012
U 1 1 60731A79
P 7500 9450
F 0 "#PWR012" H 7500 9200 50  0001 C CNN
F 1 "GND" V 7505 9322 50  0000 R CNN
F 2 "" H 7500 9450 50  0001 C CNN
F 3 "" H 7500 9450 50  0001 C CNN
	1    7500 9450
	0    -1   -1   0   
$EndComp
$Comp
L power:GND #PWR08
U 1 1 60749F23
P 5150 7100
F 0 "#PWR08" H 5150 6850 50  0001 C CNN
F 1 "GND" H 5155 6927 50  0000 C CNN
F 2 "" H 5150 7100 50  0001 C CNN
F 3 "" H 5150 7100 50  0001 C CNN
	1    5150 7100
	1    0    0    -1  
$EndComp
$Comp
L power:GND #PWR05
U 1 1 6074CC9C
P 4250 7050
F 0 "#PWR05" H 4250 6800 50  0001 C CNN
F 1 "GND" H 4255 6877 50  0000 C CNN
F 2 "" H 4250 7050 50  0001 C CNN
F 3 "" H 4250 7050 50  0001 C CNN
	1    4250 7050
	1    0    0    -1  
$EndComp
Wire Wire Line
	5150 7000 5150 7100
Wire Wire Line
	6000 8200 6000 8100
Wire Wire Line
	6100 8300 6100 8000
Wire Wire Line
	6100 8000 6550 8000
Wire Wire Line
	7150 7600 7150 7400
Wire Wire Line
	3700 7400 4000 7400
Wire Wire Line
	6950 9400 6950 9450
Wire Wire Line
	6950 9450 7050 9450
Wire Wire Line
	7050 9400 7050 9450
Connection ~ 7050 9450
Wire Wire Line
	7050 9450 7500 9450
Wire Wire Line
	6000 8100 6550 8100
$Comp
L dk_Interface-Controllers:CP2102-GMR_NRND U2
U 1 1 6080E0B5
P 6850 8400
F 0 "U2" H 6950 7303 60  0000 C CNN
F 1 "CP2102-GMR_NRND" H 6950 7197 60  0000 C CNN
F 2 "digikey-footprints:VFQFN-28-1EP_5x5mm" H 7050 8600 60  0001 L CNN
F 3 "https://www.silabs.com/documents/public/data-sheets/CP2102-9.pdf" H 7050 8700 60  0001 L CNN
F 4 "336-1160-1-ND" H 7050 8800 60  0001 L CNN "Digi-Key_PN"
F 5 "CP2102-GMR" H 7050 8900 60  0001 L CNN "MPN"
F 6 "Integrated Circuits (ICs)" H 7050 9000 60  0001 L CNN "Category"
F 7 "Interface - Controllers" H 7050 9100 60  0001 L CNN "Family"
F 8 "https://www.silabs.com/documents/public/data-sheets/CP2102-9.pdf" H 7050 9200 60  0001 L CNN "DK_Datasheet_Link"
F 9 "/product-detail/en/silicon-labs/CP2102-GMR/336-1160-1-ND/3672615" H 7050 9300 60  0001 L CNN "DK_Detail_Page"
F 10 "IC USB-TO-UART BRIDGE 28VQFN" H 7050 9400 60  0001 L CNN "Description"
F 11 "Silicon Labs" H 7050 9500 60  0001 L CNN "Manufacturer"
F 12 "Not For New Designs" H 7050 9600 60  0001 L CNN "Status"
	1    6850 8400
	1    0    0    -1  
$EndComp
Wire Wire Line
	6550 8200 6350 8200
Wire Wire Line
	6350 8200 6350 7400
Connection ~ 6350 7400
Wire Wire Line
	6350 7400 7150 7400
NoConn ~ 7350 8000
NoConn ~ 7350 8100
NoConn ~ 6550 8600
NoConn ~ 6550 8500
NoConn ~ 6550 7900
NoConn ~ 6550 7800
NoConn ~ 7050 7600
Wire Wire Line
	6950 7600 6950 6500
Wire Wire Line
	7350 8300 7550 8300
Wire Wire Line
	7550 8300 7550 8050
Wire Wire Line
	6550 8400 6400 8400
Wire Wire Line
	6400 8400 6400 9700
Wire Wire Line
	6400 9700 8000 9700
Wire Wire Line
	8000 9700 8000 5450
Wire Wire Line
	4250 7050 4250 7000
$Comp
L Device:C C2
U 1 1 609F2193
P 4700 6850
F 0 "C2" H 4815 6896 50  0000 L CNN
F 1 "100nF" H 4815 6805 50  0000 L CNN
F 2 "Capacitor_Tantalum_SMD:CP_EIA-3216-12_Kemet-S" H 4738 6700 50  0001 C CNN
F 3 "~" H 4700 6850 50  0001 C CNN
	1    4700 6850
	1    0    0    -1  
$EndComp
$Comp
L power:GND #PWR07
U 1 1 609F26F7
P 4700 7050
F 0 "#PWR07" H 4700 6800 50  0001 C CNN
F 1 "GND" H 4705 6877 50  0000 C CNN
F 2 "" H 4700 7050 50  0001 C CNN
F 3 "" H 4700 7050 50  0001 C CNN
	1    4700 7050
	1    0    0    -1  
$EndComp
Wire Wire Line
	4700 7050 4700 7000
Wire Wire Line
	4000 6600 4000 7400
Connection ~ 4000 7400
Wire Wire Line
	4000 7400 6350 7400
Wire Wire Line
	4250 6700 4250 6600
Connection ~ 4250 6600
Wire Wire Line
	4250 6600 4000 6600
Wire Wire Line
	5150 6500 6950 6500
Wire Wire Line
	4700 6600 4700 6700
Wire Wire Line
	4250 6600 4700 6600
$Comp
L Transistor_BJT:BC817 Q1
U 1 1 60A81FA7
P 9200 8450
F 0 "Q1" H 9391 8496 50  0000 L CNN
F 1 "BC817" H 9391 8405 50  0000 L CNN
F 2 "Package_TO_SOT_SMD:SOT-23" H 9400 8375 50  0001 L CIN
F 3 "https://www.onsemi.com/pub/Collateral/BC818-D.pdf" H 9200 8450 50  0001 L CNN
	1    9200 8450
	1    0    0    -1  
$EndComp
$Comp
L Transistor_BJT:BC817 Q2
U 1 1 60A85367
P 9200 9250
F 0 "Q2" H 9391 9296 50  0000 L CNN
F 1 "BC817" H 9391 9205 50  0000 L CNN
F 2 "Package_TO_SOT_SMD:SOT-23" H 9400 9175 50  0001 L CIN
F 3 "https://www.onsemi.com/pub/Collateral/BC818-D.pdf" H 9200 9250 50  0001 L CNN
	1    9200 9250
	1    0    0    -1  
$EndComp
$Comp
L Device:R R4
U 1 1 60A8D3A2
P 8650 8450
F 0 "R4" V 8443 8450 50  0000 C CNN
F 1 "10K" V 8534 8450 50  0000 C CNN
F 2 "Resistor_SMD:R_0603_1608Metric" V 8580 8450 50  0001 C CNN
F 3 "~" H 8650 8450 50  0001 C CNN
	1    8650 8450
	0    1    1    0   
$EndComp
$Comp
L Device:R R5
U 1 1 60A90429
P 8650 9250
F 0 "R5" V 8443 9250 50  0000 C CNN
F 1 "10K" V 8534 9250 50  0000 C CNN
F 2 "Resistor_SMD:R_0603_1608Metric" V 8580 9250 50  0001 C CNN
F 3 "~" H 8650 9250 50  0001 C CNN
	1    8650 9250
	0    1    1    0   
$EndComp
Wire Wire Line
	8800 8450 9000 8450
Wire Wire Line
	9000 9250 8800 9250
Wire Wire Line
	9300 8250 9300 8150
Text Label 9600 8150 2    50   ~ 0
EN
Wire Wire Line
	9300 9050 13050 9050
Wire Wire Line
	13050 9050 13050 4250
Wire Wire Line
	13050 4250 11900 4250
Wire Wire Line
	7350 8400 8100 8400
Wire Wire Line
	8100 8400 8100 8450
Wire Wire Line
	8100 9550 9300 9550
Wire Wire Line
	9300 9550 9300 9450
Wire Wire Line
	8500 8450 8100 8450
Connection ~ 8100 8450
Wire Wire Line
	8100 8450 8100 9550
Wire Wire Line
	8500 9250 8500 8650
Wire Wire Line
	13100 8150 13100 4000
Wire Wire Line
	13100 4000 12500 4000
Wire Wire Line
	12500 4000 12500 2550
Wire Wire Line
	9300 8150 13100 8150
Text Label 9500 9050 0    50   ~ 0
IO0
Text Label 8350 8450 2    50   ~ 0
DTR
NoConn ~ 6550 8300
Wire Wire Line
	7350 8200 7950 8200
Wire Wire Line
	7950 8200 7950 8650
Wire Wire Line
	7950 8650 8500 8650
Connection ~ 8500 8650
Wire Wire Line
	8500 8650 9300 8650
Text Label 8500 8800 2    50   ~ 0
RTS
Wire Wire Line
	12000 2150 12000 2350
Wire Wire Line
	11900 2450 11900 2500
Connection ~ 11900 2450
Wire Wire Line
	12100 2550 12500 2550
Wire Wire Line
	11900 2450 12350 2450
Wire Wire Line
	12100 2550 12100 2500
Wire Wire Line
	12100 2500 11900 2500
$Comp
L Device:LED D2
U 1 1 60D0788E
P 12500 1700
F 0 "D2" V 12447 1780 50  0000 L CNN
F 1 "LED" V 12538 1780 50  0000 L CNN
F 2 "LED_SMD:LED_0402_1005Metric" H 12500 1700 50  0001 C CNN
F 3 "~" H 12500 1700 50  0001 C CNN
	1    12500 1700
	-1   0    0    1   
$EndComp
$Comp
L Device:R R10
U 1 1 60D1367E
P 12350 2050
F 0 "R10" H 12420 2096 50  0000 L CNN
F 1 "1K" H 12420 2005 50  0000 L CNN
F 2 "Resistor_SMD:R_0603_1608Metric" V 12280 2050 50  0001 C CNN
F 3 "~" H 12350 2050 50  0001 C CNN
	1    12350 2050
	1    0    0    -1  
$EndComp
Wire Wire Line
	12350 2200 12350 2450
Connection ~ 12350 2450
Wire Wire Line
	12350 2450 13600 2450
$Comp
L power:GND #PWR027
U 1 1 60D6BEFA
P 12750 1700
F 0 "#PWR027" H 12750 1450 50  0001 C CNN
F 1 "GND" H 12755 1527 50  0000 C CNN
F 2 "" H 12750 1700 50  0001 C CNN
F 3 "" H 12750 1700 50  0001 C CNN
	1    12750 1700
	0    -1   -1   0   
$EndComp
$Comp
L Device:R R11
U 1 1 60D81B4C
P 12550 4350
F 0 "R11" V 12400 4350 50  0000 C CNN
F 1 "100" V 12550 4350 50  0000 C CNN
F 2 "Resistor_SMD:R_0603_1608Metric" V 12480 4350 50  0001 C CNN
F 3 "~" H 12550 4350 50  0001 C CNN
	1    12550 4350
	0    1    1    0   
$EndComp
$Comp
L Device:LED D1
U 1 1 60D827BC
P 12200 4350
F 0 "D1" H 12193 4095 50  0000 C CNN
F 1 "LED" H 12193 4186 50  0000 C CNN
F 2 "LED_SMD:LED_0402_1005Metric" H 12200 4350 50  0001 C CNN
F 3 "~" H 12200 4350 50  0001 C CNN
	1    12200 4350
	-1   0    0    1   
$EndComp
$Comp
L power:GND #PWR020
U 1 1 60E8017F
P 9550 3650
F 0 "#PWR020" H 9550 3400 50  0001 C CNN
F 1 "GND" H 9555 3477 50  0000 C CNN
F 2 "" H 9550 3650 50  0001 C CNN
F 3 "" H 9550 3650 50  0001 C CNN
	1    9550 3650
	-1   0    0    1   
$EndComp
Wire Wire Line
	12750 4350 12750 5750
Wire Wire Line
	11900 4450 12700 4450
Wire Wire Line
	11900 4550 12650 4550
Wire Wire Line
	8950 4350 8950 4750
$Comp
L Device:R R9
U 1 1 5FFB171E
P 9700 5550
F 0 "R9" V 9800 5550 50  0000 C CNN
F 1 "499R" V 9700 5550 50  0000 C CNN
F 2 "Resistor_SMD:R_0805_2012Metric" V 9630 5550 50  0001 C CNN
F 3 "~" H 9700 5550 50  0001 C CNN
	1    9700 5550
	0    -1   1    0   
$EndComp
Wire Wire Line
	9900 5550 9850 5550
Wire Wire Line
	8250 5550 9550 5550
Wire Wire Line
	11900 5750 12750 5750
Wire Wire Line
	11900 4650 12600 4650
Wire Wire Line
	11900 4750 12550 4750
Wire Wire Line
	11900 4850 12500 4850
Wire Wire Line
	11900 4950 12450 4950
Wire Wire Line
	11900 5050 12400 5050
Wire Wire Line
	11900 5150 12350 5150
Wire Wire Line
	11900 5250 12300 5250
Wire Wire Line
	11900 5350 12250 5350
Wire Wire Line
	11900 5450 12200 5450
Wire Wire Line
	11900 5550 12150 5550
$Comp
L Connector_Generic:Conn_2Rows-21Pins J3
U 1 1 61362F2A
P 10900 7000
F 0 "J3" H 10950 7717 50  0000 C CNN
F 1 "Conn_2Rows-21Pins" H 10950 7626 50  0000 C CNN
F 2 "Connector_PinSocket_1.27mm:PinSocket_2x11_P1.27mm_Vertical" H 10900 7000 50  0001 C CNN
F 3 "~" H 10900 7000 50  0001 C CNN
	1    10900 7000
	1    0    0    -1  
$EndComp
Wire Wire Line
	12150 5550 12150 6500
Wire Wire Line
	12200 5450 12200 6600
Wire Wire Line
	12250 5350 12250 6700
Wire Wire Line
	12300 5250 12300 6800
Wire Wire Line
	12350 5150 12350 6900
Wire Wire Line
	12400 5050 12400 7000
Wire Wire Line
	12450 4950 12450 7100
Wire Wire Line
	12500 4850 12500 7200
Wire Wire Line
	12550 4750 12550 7300
Wire Wire Line
	12600 4650 12600 7400
Wire Wire Line
	12650 4550 12650 7600
Wire Wire Line
	12700 4450 12700 7650
Wire Wire Line
	9900 4450 9250 4450
Wire Wire Line
	9900 4550 9300 4550
Wire Wire Line
	9350 4650 9900 4650
Wire Wire Line
	9900 4750 9400 4750
NoConn ~ 10700 7300
Wire Wire Line
	9400 4750 9400 6500
Wire Wire Line
	9400 6500 10700 6500
Wire Wire Line
	9350 4650 9350 6600
Wire Wire Line
	9350 6600 10700 6600
Wire Wire Line
	9300 4550 9300 6700
Wire Wire Line
	9300 6700 10700 6700
Wire Wire Line
	9250 4450 9250 6800
Wire Wire Line
	9250 6800 10700 6800
Wire Wire Line
	9900 3950 9200 3950
Wire Wire Line
	9200 3950 9200 6900
Wire Wire Line
	9200 6900 10700 6900
Wire Wire Line
	9900 3850 9150 3850
Wire Wire Line
	9150 3850 9150 7000
Wire Wire Line
	9150 7000 10700 7000
Connection ~ 8300 4750
Wire Wire Line
	8300 4750 8900 4750
Connection ~ 8900 4750
Wire Wire Line
	8900 4750 8950 4750
Connection ~ 8900 4250
Wire Wire Line
	8900 4250 9900 4250
Wire Wire Line
	8950 4350 9900 4350
Connection ~ 8300 4250
Wire Wire Line
	8300 4250 8900 4250
Wire Wire Line
	7650 3750 7650 3800
Wire Wire Line
	11900 4350 12050 4350
Wire Wire Line
	12400 4350 12350 4350
Wire Wire Line
	12700 4350 12750 4350
Text Label 11200 6500 0    50   ~ 0
GPIO27
Text Label 11200 6600 0    50   ~ 0
GPIO26
Text Label 11200 6700 0    50   ~ 0
GPIO25
Text Label 11200 6800 0    50   ~ 0
GPIO23
Text Label 11200 6900 0    50   ~ 0
GPIO22
Text Label 11200 7000 0    50   ~ 0
GPIO21
Text Label 11200 7100 0    50   ~ 0
GPIO19
Text Label 11200 7200 0    50   ~ 0
GPIO18
Text Label 11200 7300 0    50   ~ 0
GPIO17
Text Label 11200 7400 0    50   ~ 0
GPIO16
Wire Wire Line
	11200 6500 12150 6500
Wire Wire Line
	11200 6600 12200 6600
Wire Wire Line
	11200 6700 12250 6700
Wire Wire Line
	11200 6800 12300 6800
Wire Wire Line
	11200 6900 12350 6900
Wire Wire Line
	11200 7000 12400 7000
Wire Wire Line
	11200 7100 12450 7100
Wire Wire Line
	11200 7200 12500 7200
Wire Wire Line
	11200 7300 12550 7300
Wire Wire Line
	11200 7400 12600 7400
Wire Wire Line
	12700 7650 9150 7650
Wire Wire Line
	9150 7100 10700 7100
Wire Wire Line
	12650 7600 9200 7600
Wire Wire Line
	9200 7200 10700 7200
Text Label 10700 7200 2    50   ~ 0
GPIO5
Text Label 10700 7100 2    50   ~ 0
GPIO4
Wire Wire Line
	9150 7100 9150 7650
Wire Wire Line
	9200 7200 9200 7600
NoConn ~ 10700 7400
NoConn ~ 10700 7500
Text Label 10700 6500 2    50   ~ 0
GPIO15
Text Label 10700 6600 2    50   ~ 0
GPIO13
Text Label 10700 6700 2    50   ~ 0
GPIO14
Text Label 10700 6800 2    50   ~ 0
GPIO12
Text Label 10700 6900 2    50   ~ 0
GPIO35
Text Label 10700 7000 2    50   ~ 0
GPIO34
Connection ~ 12750 5750
Wire Wire Line
	12350 1700 12350 1900
Wire Wire Line
	12750 1700 12650 1700
Wire Notes Line
	15600 1500 15600 6000
Wire Notes Line
	4950 6000 4950 1500
Wire Notes Line
	9100 6100 12900 6100
Wire Notes Line
	12900 7850 9100 7850
Wire Notes Line
	9750 7900 9750 9800
Wire Notes Line
	9050 6100 9050 7900
Wire Notes Line
	9050 7900 9750 7900
Wire Notes Line
	1900 6100 1900 9800
Wire Notes Line
	1900 9800 9750 9800
Wire Notes Line
	1900 6100 9050 6100
Text Notes 4950 1500 0    50   ~ 0
Main ESP32 MCU
Text Notes 1900 5000 0    50   ~ 0
SPI Flash
Text Notes 1900 6100 0    50   ~ 0
USB to UART programmer\n
Text Notes 9400 6100 0    50   ~ 0
GPIO Connectors
Wire Notes Line
	9100 6100 9100 7850
Wire Notes Line
	12900 6100 12900 7850
Wire Notes Line
	4950 1500 15600 1500
Wire Notes Line
	4950 6000 15600 6000
Wire Wire Line
	9900 3750 9550 3750
Wire Wire Line
	9550 3750 9550 3650
$Comp
L power:GND #PWR06
U 1 1 6061FD8B
P 4300 8550
F 0 "#PWR06" H 4300 8300 50  0001 C CNN
F 1 "GND" V 4305 8422 50  0000 R CNN
F 2 "" H 4300 8550 50  0001 C CNN
F 3 "" H 4300 8550 50  0001 C CNN
	1    4300 8550
	0    -1   -1   0   
$EndComp
Wire Wire Line
	4150 8550 4150 8600
Wire Wire Line
	4150 8550 4300 8550
Connection ~ 4150 8550
Wire Wire Line
	4150 8500 4150 8550
Wire Wire Line
	3950 8600 4150 8600
Wire Wire Line
	3950 8500 4150 8500
$Comp
L Connector:Conn_Coaxial J2
U 1 1 5FF63631
P 6050 4150
F 0 "J2" H 6150 4032 50  0000 L CNN
F 1 "Conn_Coaxial" H 6150 4123 50  0000 L CNN
F 2 "Connector_Coaxial:SMA_Amphenol_132291-12_Vertical" H 6050 4150 50  0001 C CNN
F 3 " ~" H 6050 4150 50  0001 C CNN
	1    6050 4150
	-1   0    0    1   
$EndComp
$Comp
L Device:R R1
U 1 1 61F65003
P 3800 8500
F 0 "R1" V 3700 8500 50  0000 C CNN
F 1 "5.1K" V 3800 8500 50  0000 C CNN
F 2 "Resistor_SMD:R_0805_2012Metric" V 3730 8500 50  0001 C CNN
F 3 "~" H 3800 8500 50  0001 C CNN
	1    3800 8500
	0    1    1    0   
$EndComp
$Comp
L Device:R R2
U 1 1 61F7A10B
P 3800 8600
F 0 "R2" V 3700 8600 50  0000 C CNN
F 1 "5.1K" V 3800 8600 50  0000 C CNN
F 2 "Resistor_SMD:R_0805_2012Metric" V 3730 8600 50  0001 C CNN
F 3 "~" H 3800 8600 50  0001 C CNN
	1    3800 8600
	0    -1   -1   0   
$EndComp
Wire Wire Line
	3500 8500 3650 8500
Wire Wire Line
	3650 8600 3500 8600
$Comp
L USB4085-GF-A_REVA:USB4085-GF-A_REVA J1
U 1 1 61EE1A4C
P 3200 8200
F 0 "J1" H 3143 7333 50  0000 C CNN
F 1 "USB4085-GF-A_REVA" H 3143 7424 50  0000 C CNN
F 2 "USB4085-GF-A_REVA:GCT_USB4085-GF-A_REVA" H 3200 8200 50  0001 L BNN
F 3 "" H 3200 8200 50  0001 L BNN
F 4 "Global Connector Technology" H 3200 8200 50  0001 L BNN "MANUFACTURER"
F 5 "3.46mm" H 3200 8200 50  0001 L BNN "MAXIMUM_PACKAGE_HEIGHT"
F 6 "A2" H 3200 8200 50  0001 L BNN "PARTREV"
F 7 "Manufacturer Recommendations" H 3200 8200 50  0001 L BNN "STANDARD"
	1    3200 8200
	-1   0    0    1   
$EndComp
NoConn ~ 3500 8000
NoConn ~ 3500 7900
$Comp
L power:GND #PWR02
U 1 1 6201B1E4
P 3600 7650
F 0 "#PWR02" H 3600 7400 50  0001 C CNN
F 1 "GND" V 3605 7522 50  0000 R CNN
F 2 "" H 3600 7650 50  0001 C CNN
F 3 "" H 3600 7650 50  0001 C CNN
	1    3600 7650
	0    -1   -1   0   
$EndComp
Wire Wire Line
	3500 7600 3600 7600
Wire Wire Line
	3600 7600 3600 7650
Wire Wire Line
	3500 7700 3600 7700
Wire Wire Line
	3600 7700 3600 7650
Connection ~ 3600 7650
Wire Wire Line
	3500 8800 3500 8950
Wire Wire Line
	3500 8950 2800 8950
Wire Wire Line
	2800 8950 2800 7250
Wire Wire Line
	2800 7250 3700 7250
Connection ~ 3700 7250
Wire Wire Line
	3700 7250 3700 7000
$Comp
L power:PWR_FLAG #FLG03
U 1 1 606C8C5E
P 13250 2300
F 0 "#FLG03" H 13250 2375 50  0001 C CNN
F 1 "PWR_FLAG" H 13050 2300 50  0000 C CNN
F 2 "" H 13250 2300 50  0001 C CNN
F 3 "~" H 13250 2300 50  0001 C CNN
	1    13250 2300
	-1   0    0    1   
$EndComp
Connection ~ 13250 2300
Wire Wire Line
	15200 2450 15500 2450
$Comp
L power:PWR_FLAG #FLG02
U 1 1 606F5E34
P 11900 2450
F 0 "#FLG02" H 11900 2525 50  0001 C CNN
F 1 "PWR_FLAG" H 12150 2500 50  0000 C CNN
F 2 "" H 11900 2450 50  0001 C CNN
F 3 "~" H 11900 2450 50  0001 C CNN
	1    11900 2450
	1    0    0    -1  
$EndComp
$Comp
L power:PWR_FLAG #FLG01
U 1 1 606F8ED8
P 3700 7000
F 0 "#FLG01" H 3700 7075 50  0001 C CNN
F 1 "PWR_FLAG" V 3700 7127 50  0000 L CNN
F 2 "" H 3700 7000 50  0001 C CNN
F 3 "~" H 3700 7000 50  0001 C CNN
	1    3700 7000
	0    -1   -1   0   
$EndComp
Connection ~ 3700 7000
Text GLabel 2450 5550 0    50   BiDi ~ 0
SD0\SD0
Text GLabel 2450 5650 0    50   BiDi ~ 0
SWP\SD3
Text GLabel 9900 4850 0    50   BiDi ~ 0
SD0\SD0
Text GLabel 4200 5550 2    50   BiDi ~ 0
SHD\SD2
Text GLabel 4200 5750 2    50   BiDi ~ 0
SDI\SD1
Text GLabel 2450 5450 0    50   BiDi ~ 0
SCS\CMD
Text GLabel 9900 4950 0    50   BiDi ~ 0
SDI\SD1
Text GLabel 9900 5050 0    50   BiDi ~ 0
SHD\SD2
Text GLabel 9900 5150 0    50   BiDi ~ 0
SWP\SD3
Text GLabel 9900 5250 0    50   BiDi ~ 0
SCS\CMD
Text GLabel 9900 5350 0    50   BiDi ~ 0
SCK\CLK
Text GLabel 6550 2600 0    50   BiDi ~ 0
SCK\CLK
Text GLabel 7650 2600 2    50   BiDi ~ 0
FLASH_CLK
Text GLabel 4200 5650 2    50   BiDi ~ 0
FLASH_CLK
Wire Wire Line
	6550 2600 6900 2600
Wire Wire Line
	8400 3250 9050 3250
$Comp
L Device:C C11
U 1 1 609BFC7B
P 9050 3550
F 0 "C11" H 8935 3504 50  0000 R CNN
F 1 "10pF" H 8935 3595 50  0000 R CNN
F 2 "Capacitor_Tantalum_SMD:CP_EIA-3216-12_Kemet-S" H 9088 3400 50  0001 C CNN
F 3 "~" H 9050 3550 50  0001 C CNN
	1    9050 3550
	-1   0    0    1   
$EndComp
Wire Wire Line
	7650 4100 9450 4100
NoConn ~ 8500 4000
Wire Wire Line
	8800 4000 8800 4050
Wire Wire Line
	8800 4050 8100 4050
Wire Wire Line
	8100 4050 8100 3650
Wire Wire Line
	8100 3650 7950 3650
Wire Wire Line
	8500 3350 8100 3350
Wire Wire Line
	8100 3350 8100 3500
Wire Wire Line
	8100 3500 7950 3500
Wire Wire Line
	9050 3400 9050 3250
Connection ~ 9050 3250
Wire Wire Line
	9050 3250 9100 3250
Wire Wire Line
	8800 3350 8950 3350
Wire Wire Line
	7950 3250 8100 3250
Wire Wire Line
	8950 3900 9050 3900
Wire Wire Line
	9050 3900 9050 3700
Wire Wire Line
	8950 3350 8950 3900
$EndSCHEMATC
